[
  {
    "_id": {"$oid": "60a13ec754ef12e368a5344a"},
    "createdAt": {"$date": "2021-04-04T19:01:42.429Z"},
    "title": "first",
    "updatedAt": {"$date": "2021-04-04T19:01:42.429Z"},
    "url": {
      "original": "/uploads/photos/60a13ec754ef12e368a5344a/original_Photo01_4.jpg",
      "fullHd": "/uploads/photos/60a13ec754ef12e368a5344a/fullHd_Photo01_4.jpg",
      "thumbnail": "/uploads/photos/60a13ec754ef12e368a5344a/thumbnail_Photo01_4.jpg"
    },
    "type": "black-and-white"
  }
]